…
# \donttest{
# Contar por capitulo
cie10_sql("SELECT capitulo, COUNT(*) n FROM cie10 GROUP BY capitulo")
#> # A tibble: 2,053 × 2
#>    capitulo     n
#>    <chr>    <int>
#>  1 A00          4
#>  2 A01          6
#>  3 A02          6
#>  4 A03          7
#>  5 A04         11
#>  6 A05          8
#>  7 A06         11
#>  8 A07          7
#>  9 A08          7
#> 10 A09          3
#> # ℹ 2,043 more rows
…
