…
Other busqueda:
[`cie_describe()`](https://rodotasso.github.io/ciecl/reference/cie_describe.md),
[`cie_guia_busqueda()`](https://rodotasso.github.io/ciecl/reference/cie_guia_busqueda.md),
[`cie_guide()`](https://rodotasso.github.io/ciecl/reference/cie_guide.md),
[`cie_lookup()`](https://rodotasso.github.io/ciecl/reference/cie_lookup.md),
[`cie_search()`](https://rodotasso.github.io/ciecl/reference/cie_search.md),
[`cie_siglas()`](https://rodotasso.github.io/ciecl/reference/cie_siglas.md)

## Examples

``` r
# Ver todas las siglas
cie_short()
#> # A tibble: 89 × 3
#>    sigla   termino_busqueda         categoria     
#>    <chr>   <chr>                    <chr>         
#>  1 iam     infarto agudo miocardio  cardiovascular
#>  2 iamcest infarto agudo miocardio  cardiovascular
#>  3 iamsest infarto agudo miocardio  cardiovascular
#>  4 sca     sindrome coronario agudo cardiovascular
#>  5 hta     hipertension arterial    cardiovascular
#>  6 aha     hipertension arterial    cardiovascular
#>  7 icc     insuficiencia cardiaca   cardiovascular
#>  8 ic      insuficiencia cardiaca   cardiovascular
#>  9 fa      fibrilacion auricular    cardiovascular
#> 10 tep     embolia pulmonar         cardiovascular
#> # ℹ 79 more rows
…
