Busqueda difusa (fuzzy) de terminos medicos CIE-10 — cie_search • ciecl
…
    See also

    cie_lookup(), cie_short(), cie10_sql()

Other search:
cie_describe(),
cie_guia_busqueda(),
cie_guide(),
cie_lookup()

    Examples

# Busqueda basica
cie_search("diabetes")
#> # A tibble: 50 × 4
#>    codigo descripcion                                            score categoria
#>    <chr>  <chr>                                                  <dbl> <chr>    
#>  1 E10    Diabetes mellitus insulinodependiente                      1 E10 DIAB…
#>  2 E10.0  Diabetes mellitus tipo 1 con coma                          1 E10 DIAB…
#>  3 E10.1  Diabetes mellitus tipo 1 con cetoacidosis                  1 E10 DIAB…
#>  4 E10.2  Diabetes mellitus tipo 1 con complicaciones renales        1 E10 DIAB…
#>  5 E10.3  Diabetes mellitus tipo 1 con complicaciones oftálmicas     1 E10 DIAB…
#>  6 E10.4  Diabetes mellitus tipo 1 con complicaciones neurológi…     1 E10 DIAB…
#>  7 E10.5  Diabetes mellitus tipo 1 con complicaciones  circulat…     1 E10 DIAB…
#>  8 E10.6  Diabetes mellitus tipo 1 con otras complicaciones esp…     1 E10 DIAB…
#>  9 E10.7  Diabetes mellitus tipo 1 con complicaciones múltiples      1 E10 DIAB…
#> 10 E10.8  Diabetes mellitus tipo 1 con complicaciones no especi…     1 E10 DIAB…
#> # ℹ 40 more rows
…
