Listar siglas medicas soportadas — cie_siglas • ciecl
…
    See also

    cie_search, cie_lookup

Other busqueda:
cie_guia_busqueda(),
cie_lookup(),
cie_search()

    Examples

# Ver todas las siglas
cie_siglas()
#> # A tibble: 89 × 3
#>    sigla   termino_busqueda         categoria     
#>    <chr>   <chr>                    <chr>         
#>  1 iam     infarto agudo miocardio  cardiovascular
#>  2 iamcest infarto agudo miocardio  cardiovascular
#>  3 iamsest infarto agudo miocardio  cardiovascular
#>  4 sca     sindrome coronario agudo cardiovascular
#>  5 hta     hipertension arterial    cardiovascular
#>  6 aha     hipertension arterial    cardiovascular
#>  7 icc     insuficiencia cardiaca   cardiovascular
#>  8 ic      insuficiencia cardiaca   cardiovascular
#>  9 fa      fibrilacion auricular    cardiovascular
#> 10 tep     embolia pulmonar         cardiovascular
#> # ℹ 79 more rows
…
