…
## 4. Exploración del catálogo con `cie_search()`

En fases exploratorias, donde se desconoce el código exacto o se trabaja
con registros de texto libre,
[`cie_search()`](https://rodotasso.github.io/ciecl/reference/cie_search.md)
permite realizar búsquedas por aproximación (fuzzy matching). Esto es
útil para validar si un término clínico tiene una correspondencia
directa en el catálogo.

``` r

# Ejemplo de búsqueda con error ortográfico intencional ("diabetis")
# El resultado permite identificar el código correcto a pesar del error
cie_search(text = "diabetis", threshold = 0.7)
#> # A tibble: 50 × 4
#>    codigo descripcion                                            score categoria
#>    <chr>  <chr>                                                  <dbl> <chr>    
#>  1 E10    Diabetes mellitus insulinodependiente                  0.917 E10 DIAB…
#>  2 E10.0  Diabetes mellitus tipo 1 con coma                      0.917 E10 DIAB…
#>  3 E10.1  Diabetes mellitus tipo 1 con cetoacidosis              0.917 E10 DIAB…
#>  4 E10.2  Diabetes mellitus tipo 1 con complicaciones renales    0.917 E10 DIAB…
#>  5 E10.3  Diabetes mellitus tipo 1 con complicaciones oftálmicas 0.917 E10 DIAB…
#>  6 E10.4  Diabetes mellitus tipo 1 con complicaciones neurológi… 0.917 E10 DIAB…
#>  7 E10.5  Diabetes mellitus tipo 1 con complicaciones  circulat… 0.917 E10 DIAB…
#>  8 E10.6  Diabetes mellitus tipo 1 con otras complicaciones esp… 0.917 E10 DIAB…
#>  9 E10.7  Diabetes mellitus tipo 1 con complicaciones múltiples  0.917 E10 DIAB…
#> 10 E10.8  Diabetes mellitus tipo 1 con complicaciones no especi… 0.917 E10 DIAB…
#> # ℹ 40 more rows
```
…
