…
## Fuzzy search with typos

``` r
# Finds even if misspelled
cie_search("diabetis with coma", threshold = 0.75)
#> # A tibble: 22 × 4
#>    codigo descripcion                                            score categoria
#>    <chr>  <chr>                                                  <dbl> <chr>    
#>  1 B15.0  Hepatitis aguda tipo A, con coma hepático              0.333 B15 HEPA…
#>  2 B15.9  Hepatitis aguda tipo A, sin coma hepático              0.333 B15 HEPA…
#>  3 B16.0  Hepatitis aguda tipo B, con agente delta (coinfección… 0.333 B16 HEPA…
#>  4 B16.1  Hepatitis aguda tipo B, con agente delta (coinfección… 0.333 B16 HEPA…
#>  5 B16.2  Hepatitis aguda tipo B, sin agente delta, con coma he… 0.333 B16 HEPA…
#>  6 B16.9  Hepatitis aguda tipo B, sin agente delta y sin coma h… 0.333 B16 HEPA…
#>  7 B19.0  Hepatitis viral no especificada, con coma hepático     0.333 B19 HEPA…
#>  8 B19.9  Hepatitis viral no especificada, sin  coma hepático    0.333 B19 HEPA…
#>  9 E03.5  Coma mixedematoso                                      0.333 E03 OTRO…
#> 10 E10.0  Diabetes mellitus tipo 1 con coma                      0.333 E10 DIAB…
#> # ℹ 12 more rows
```
…
