…
El parámetro `threshold` (umbral) permite ajustar la sensibilidad de la
búsqueda. Un valor de `0.75` suele ser un buen compromiso para el idioma
español, permitiendo capturar errores comunes sin introducir demasiado
ruido:

``` r

# Búsqueda tolerante: "diabetis" en lugar de "diabetes"
cie_search("diabetis con coma", threshold = 0.75)
#> # A tibble: 50 × 4
#>    codigo descripcion                                            score categoria
#>    <chr>  <chr>                                                  <dbl> <chr>    
#>  1 B15.0  Hepatitis aguda tipo A, con coma hepático              0.667 B15 HEPA…
#>  2 B16.0  Hepatitis aguda tipo B, con agente delta (coinfección… 0.667 B16 HEPA…
#>  3 B16.1  Hepatitis aguda tipo B, con agente delta (coinfección… 0.667 B16 HEPA…
#>  4 B16.2  Hepatitis aguda tipo B, sin agente delta, con coma he… 0.667 B16 HEPA…
#>  5 B19.0  Hepatitis viral no especificada, con coma hepático     0.667 B19 HEPA…
#>  6 E10.0  Diabetes mellitus tipo 1 con coma                      0.667 E10 DIAB…
#>  7 E11.0  Diabetes mellitus tipo 2 con coma                      0.667 E11 DIAB…
#>  8 E12.0  Diabetes mellitus asociada con desnutrición, con coma  0.667 E12 DIAB…
#>  9 E13.0  Otras diabetes mellitus especificadas, con coma        0.667 E13 OTRA…
#> 10 E14.0  Diabetes mellitus, no especificada, con coma           0.667 E14 DIAB…
#> # ℹ 40 more rows
```
…
