…
- **Tildes preservadas en el dataset**: “Neumonía”, “Riñón”, “Corazón”.
- **Terminología local**: Usa términos médicos comunes en Chile.
- **Sin anglicismos**: Traducciones oficiales del MINSAL.

## Búsqueda tolerante a tildes y eñes

[`cie_search()`](https://rodotasso.github.io/ciecl/reference/cie_search.md)
normaliza internamente la consulta para que el usuario pueda escribir
con o sin tildes. Esto es especialmente útil en datos clínicos
mezclados, donde el mismo término aparece con y sin acento.

``` r
# Con o sin tilde: mismo resultado
cie_search("neumonia")
#> # A tibble: 50 × 4
#>    codigo descripcion                                            score categoria
#>    <chr>  <chr>                                                  <dbl> <chr>    
#>  1 B01.2  Neumonía debida a varicela (J17.1*)                        1 B01 VARI…
#>  2 B05.2  Sarampión complicado con neumonía (J17.1*)                 1 B05 SARA…
#>  3 B20.6  Enfermedad por VIH, resultante en neumonía por Pneumo…     1 B20 ENFE…
#>  4 J10.0  Influenza con neumonía, debida a otro virus de la inf…     1 J10 INFL…
#>  5 J11.0  Influenza con neumonía, virus no identificado              1 J11 INFL…
#>  6 J12    Neumonía viral, no clasificada en otra parte               1 J12 NEUM…
#>  7 J12.0  Neumonía debida a adenovirus                               1 J12 NEUM…
#>  8 J12.1  Neumonía debida a virus sincitial respiratorio             1 J12 NEUM…
#>  9 J12.2  Neumonía debida a virus parainfluenza                      1 J12 NEUM…
#> 10 J12.3  Neumonía por metapneumovirus humano                        1 J12 NEUM…
#> # ℹ 40 more rows
cie_search("neumonía")
#> # A tibble: 50 × 4
#>    codigo descripcion                                            score categoria
#>    <chr>  <chr>                                                  <dbl> <chr>    
#>  1 B01.2  Neumonía debida a varicela (J17.1*)                        1 B01 VARI…
#>  2 B05.2  Sarampión complicado con neumonía (J17.1*)                 1 B05 SARA…
#>  3 B20.6  Enfermedad por VIH, resultante en neumonía por Pneumo…     1 B20 ENFE…
#>  4 J10.0  Influenza con neumonía, debida a otro virus de la inf…     1 J10 INFL…
#>  5 J11.0  Influenza con neumonía, virus no identificado              1 J11 INFL…
#>  6 J12    Neumonía viral, no clasificada en otra parte               1 J12 NEUM…
#>  7 J12.0  Neumonía debida a adenovirus                               1 J12 NEUM…
#>  8 J12.1  Neumonía debida a virus sincitial respiratorio             1 J12 NEUM…
#>  9 J12.2  Neumonía debida a virus parainfluenza                      1 J12 NEUM…
#> 10 J12.3  Neumonía por metapneumovirus humano                        1 J12 NEUM…
#> # ℹ 40 more rows
cie_search("NEUMONIA")
#> # A tibble: 50 × 4
#>    codigo descripcion                                            score categoria
#>    <chr>  <chr>                                                  <dbl> <chr>    
#>  1 B01.2  Neumonía debida a varicela (J17.1*)                        1 B01 VARI…
#>  2 B05.2  Sarampión complicado con neumonía (J17.1*)                 1 B05 SARA…
#>  3 B20.6  Enfermedad por VIH, resultante en neumonía por Pneumo…     1 B20 ENFE…
#>  4 J10.0  Influenza con neumonía, debida a otro virus de la inf…     1 J10 INFL…
#>  5 J11.0  Influenza con neumonía, virus no identificado              1 J11 INFL…
#>  6 J12    Neumonía viral, no clasificada en otra parte               1 J12 NEUM…
#>  7 J12.0  Neumonía debida a adenovirus                               1 J12 NEUM…
#>  8 J12.1  Neumonía debida a virus sincitial respiratorio             1 J12 NEUM…
#>  9 J12.2  Neumonía debida a virus parainfluenza                      1 J12 NEUM…
#> 10 J12.3  Neumonía por metapneumovirus humano                        1 J12 NEUM…
#> # ℹ 40 more rows
```

La misma lógica aplica a la eñe: buscar `"rinon"` encuentra “Riñón” en
el catálogo.

``` r
cie_search("rinon")
#> # A tibble: 49 × 4
#>    codigo  descripcion                                           score categoria
#>    <chr>   <chr>                                                 <dbl> <chr>    
#>  1 C64     Tumor maligno del riñón, excepto de la pelvis renal       1 C64 TUMO…
#>  2 C79.0   Tumor maligno secundario del riñón y de la pelvis re…     1 C79 TUMO…
#>  3 D30.0   Tumor benigno del riñón                                   1 D30 TUMO…
#>  4 D41.0   Tumor de comportamiento incierto o desconocido del r…     1 D41 TUMO…
#>  5 M8964/3 Sarcoma de células claras del riñón (C64)                 1 M893-M89…
#>  6 M8964/6 Sarcoma de células claras del riñón (C64), metastási…     1 M893-M89…
#>  7 M9044/3 Sarcoma de células claras (excepto del riñón M8964/3)     1 M904-M90…
#>  8 M9044/6 Sarcoma de células claras (excepto del riñón M8964/3…     1 M904-M90…
#>  9 N13.2   Hidronefrosis con obstrucción por cálculos del riñón…     1 N13 UROP…
#> 10 N20     Cálculo del riñón y del uréter                            1 N20 CÁLC…
#> # ℹ 39 more rows
```
…
# Usar la sigla directamente en búsqueda
cie_search("IAM")   # Infarto Agudo del Miocardio
#> i Sigla detectada: IAM -> infarto agudo miocardio
#> # A tibble: 50 × 4
#>    codigo descripcion                                            score categoria
#>    <chr>  <chr>                                                  <dbl> <chr>    
#>  1 I21    Infarto agudo del miocardio                                1 I21 INFA…
#>  2 I21.0  Infarto transmural agudo del miocardio de la pared an…     1 I21 INFA…
#>  3 I21.1  Infarto transmural agudo del miocardio de la pared in…     1 I21 INFA…
#>  4 I21.2  Infarto agudo transmural del miocardio de otros sitios     1 I21 INFA…
#>  5 I21.3  Infarto transmural agudo del miocardio, de sitio no e…     1 I21 INFA…
#>  6 I21.4  Infarto subendocárdico agudo del miocardio                 1 I21 INFA…
#>  7 I21.9  Infarto agudo del miocardio, sin otra especificación       1 I21 INFA…
#>  8 I23    Ciertas complicaciones presentes posteriores al infar…     1 I23 CIER…
#>  9 I23.0  Hemopericardio como complicación presente posterior a…     1 I23 CIER…
#> 10 I23.3  Ruptura de la pared cardíaca sin hemopericardio como …     1 I23 CIER…
#> # ℹ 40 more rows
…
